…
```
## [1] 10.97132
```


7. (2 points) How does the average age and height of elephants compare by sex?

```r
female_elephants <- filter(elephants, sex == "F")
female_elephants
```

```
## # A tibble: 150 × 3
##      age height sex  
##    <dbl>  <dbl> <chr>
##  1 11.1   218.  F    
##  2  2.33  133.  F    
##  3  2.42  145.  F    
##  4 26.5   206.  F    
##  5 11.8   207   F    
##  6  0.33   85.6 F    
##  7 26.8   227.  F    
##  8 13.4   203   F    
##  9 28.4   228.  F    
## 10  2.08  131.  F    
## # … with 140 more rows
```
…
```r
mean(female_elephants$height)
```

```
## [1] 190.0307
```

```r
male_elephants <- filter(elephants, sex == "M")
male_elephants
```

```
## # A tibble: 138 × 3
##      age height sex  
##    <dbl>  <dbl> <chr>
##  1   1.4   120  M    
##  2  17.5   227  M    
##  3  12.8   235  M    
##  4  11.2   210  M    
##  5  12.7   220  M    
##  6  12.7   189  M    
##  7  12.2   225  M    
##  8  12.2   204  M    
##  9  28.2   266. M    
## 10  11.7   233  M    
## # … with 128 more rows
```
…
```
## [1] 185.1312
```
Females have a higher average age and height.  
8. (2 points) How does the average height of elephants compare by sex for individuals over 20 years old. Include the min and max height as well as the number of individuals in the sample as part of your analysis.  

```r
female_elephants20 <- filter(female_elephants, age > 20) 
female_elephants20
```

```
## # A tibble: 37 × 3
##      age height sex  
##    <dbl>  <dbl> <chr>
##  1  26.5   206. F    
##  2  26.8   227. F    
##  3  28.4   228. F    
##  4  27.2   226. F    
##  5  25.4   240. F    
##  6  23.3   238. F    
##  7  26.8   235. F    
##  8  27.8   265  F    
##  9  28.2   216. F    
## 10  26.1   216. F    
## # … with 27 more rows
```
…
12. (4 points) Based on your interest, do one exploratory analysis on the `gabon` data of your choice. This analysis needs to include a minimum of two functions in `dplyr.`

```r
transect %>% 
  group_by(LandUse) %>% 
  mutate(mean_diveristy= mean(Diversity_AllSpecies)) %>% 
  arrange(mean_diveristy)
```

```
## # A tibble: 24 × 27
## # Groups:   LandUse [3]
##    TransectID Distance HuntCat  NumHouseholds LandUse Veg_Rich Veg_Stems
##         <dbl>    <dbl> <chr>            <dbl> <chr>      <dbl>     <dbl>
##  1          3    20.8  None                29 Logging     12.4      29.4
##  2          7    19.8  None                54 Logging     13.2      32.6
##  3          9     5.13 High                73 Logging     16        27.1
##  4         13     6.61 Moderate            46 Logging     12.4      23.4
##  5         14     8.23 Moderate            56 Logging     15.8      30.2
##  6         16     6.1  Moderate            36 Logging     14.6      39.1
##  7         18    18.8  None                17 Logging     11.8      37  
##  8         19    14.0  Moderate            54 Logging     14.9      35  
##  9         20     6.61 Moderate            24 Logging     13.2      26.9
## 10         22     5.33 High                13 Logging     17.1      41.6
## # … with 14 more rows, and 20 more variables: Veg_liana <dbl>, Veg_DBH <dbl>,
## #   Veg_Canopy <dbl>, Veg_Understory <dbl>, RA_Apes <dbl>, RA_Birds <dbl>,
## #   RA_Elephant <dbl>, RA_Monkeys <dbl>, RA_Rodent <dbl>, RA_Ungulate <dbl>,
## #   Rich_AllSpecies <dbl>, Evenness_AllSpecies <dbl>,
## #   Diversity_AllSpecies <dbl>, Rich_BirdSpecies <dbl>,
## #   Evenness_BirdSpecies <dbl>, Diversity_BirdSpecies <dbl>,
## #   Rich_MammalSpecies <dbl>, Evenness_MammalSpecies <dbl>, …
```
…
