…
```r
gapminder %>% 
  pivot_wider(names_from = "year",
              names_prefix = "p",
              values_from = "pop") %>% 
  mutate(difference=p1952- p2007, na.rm=T) %>% 
  arrange(difference)
```

```
## # A tibble: 1,704 × 18
##    country   continent lifeExp gdpPercap   p1952   p1957   p1962   p1967   p1972
##    <fct>     <fct>       <dbl>     <dbl>   <int>   <int>   <int>   <int>   <int>
##  1 Afghanis… Asia         28.8      779. 8425333      NA NA      NA      NA     
##  2 Afghanis… Asia         30.3      821.      NA 9240934 NA      NA      NA     
##  3 Afghanis… Asia         32.0      853.      NA      NA  1.03e7 NA      NA     
##  4 Afghanis… Asia         34.0      836.      NA      NA NA       1.15e7 NA     
##  5 Afghanis… Asia         36.1      740.      NA      NA NA      NA       1.31e7
##  6 Afghanis… Asia         38.4      786.      NA      NA NA      NA      NA     
##  7 Afghanis… Asia         39.9      978.      NA      NA NA      NA      NA     
##  8 Afghanis… Asia         40.8      852.      NA      NA NA      NA      NA     
##  9 Afghanis… Asia         41.7      649.      NA      NA NA      NA      NA     
## 10 Afghanis… Asia         41.8      635.      NA      NA NA      NA      NA     
## # … with 1,694 more rows, and 9 more variables: p1977 <int>, p1982 <int>,
## #   p1987 <int>, p1992 <int>, p1997 <int>, p2002 <int>, p2007 <int>,
## #   difference <int>, na.rm <lgl>
```




```r
gapminder %>% 
  group_by(country) %>% 
  filter(year == "1952" | year == "2007" )
```

```
## # A tibble: 284 × 6
## # Groups:   country [142]
##    country     continent  year lifeExp      pop gdpPercap
##    <fct>       <fct>     <int>   <dbl>    <int>     <dbl>
##  1 Afghanistan Asia       1952    28.8  8425333      779.
##  2 Afghanistan Asia       2007    43.8 31889923      975.
##  3 Albania     Europe     1952    55.2  1282697     1601.
##  4 Albania     Europe     2007    76.4  3600523     5937.
##  5 Algeria     Africa     1952    43.1  9279525     2449.
##  6 Algeria     Africa     2007    72.3 33333216     6223.
##  7 Angola      Africa     1952    30.0  4232095     3521.
##  8 Angola      Africa     2007    42.7 12420476     4797.
##  9 Argentina   Americas   1952    62.5 17876956     5911.
## 10 Argentina   Americas   2007    75.3 40301927    12779.
## # … with 274 more rows
```
…
