…
```
## 
## ℹ Use `spec()` to retrieve the full column specification for this data.
## ℹ Specify the column types or set `show_col_types = FALSE` to quiet this message.
```

```r
homerange
```

```
## # A tibble: 569 × 24
##    taxon  common.name   class   order   family genus species primarymethod N    
##    <chr>  <chr>         <chr>   <chr>   <chr>  <chr> <chr>   <chr>         <chr>
##  1 lake … american eel  actino… anguil… angui… angu… rostra… telemetry     16   
##  2 river… blacktail re… actino… cyprin… catos… moxo… poecil… mark-recaptu… <NA> 
##  3 river… central ston… actino… cyprin… cypri… camp… anomal… mark-recaptu… 20   
##  4 river… rosyside dace actino… cyprin… cypri… clin… fundul… mark-recaptu… 26   
##  5 river… longnose dace actino… cyprin… cypri… rhin… catara… mark-recaptu… 17   
##  6 river… muskellunge   actino… esocif… esoci… esox  masqui… telemetry     5    
##  7 marin… pollack       actino… gadifo… gadid… poll… pollac… telemetry     2    
##  8 marin… saithe        actino… gadifo… gadid… poll… virens  telemetry     2    
##  9 marin… lined surgeo… actino… percif… acant… acan… lineat… direct obser… <NA> 
## 10 marin… orangespine … actino… percif… acant… naso  litura… telemetry     8    
## # … with 559 more rows, and 15 more variables: mean.mass.g <dbl>,
## #   log10.mass <dbl>, alternative.mass.reference <chr>, mean.hra.m2 <dbl>,
## #   log10.hra <dbl>, hra.reference <chr>, realm <chr>, thermoregulation <chr>,
## #   locomotion <chr>, trophic.guild <chr>, dimension <dbl>, preymass <dbl>,
## #   log10.preymass <dbl>, PPMR <dbl>, prey.size.reference <chr>
```
…
```r
select(homerange, taxon)
```

```
## # A tibble: 569 × 1
##    taxon        
##    <fct>        
##  1 lake fishes  
##  2 river fishes 
##  3 river fishes 
##  4 river fishes 
##  5 river fishes 
##  6 river fishes 
##  7 marine fishes
##  8 marine fishes
##  9 marine fishes
## 10 marine fishes
## # … with 559 more rows
```

```r
taxa <- select(homerange, taxon, common.name, class, order, family, genus, species)
taxa
```

```
## # A tibble: 569 × 7
##    taxon         common.name             class   order   family   genus  species
##    <fct>         <chr>                   <chr>   <fct>   <chr>    <chr>  <chr>  
##  1 lake fishes   american eel            actino… anguil… anguill… angui… rostra…
##  2 river fishes  blacktail redhorse      actino… cyprin… catosto… moxos… poecil…
##  3 river fishes  central stoneroller     actino… cyprin… cyprini… campo… anomal…
##  4 river fishes  rosyside dace           actino… cyprin… cyprini… clino… fundul…
##  5 river fishes  longnose dace           actino… cyprin… cyprini… rhini… catara…
##  6 river fishes  muskellunge             actino… esocif… esocidae esox   masqui…
##  7 marine fishes pollack                 actino… gadifo… gadidae  polla… pollac…
##  8 marine fishes saithe                  actino… gadifo… gadidae  polla… virens 
##  9 marine fishes lined surgeonfish       actino… percif… acanthu… acant… lineat…
## 10 marine fishes orangespine unicornfish actino… percif… acanthu… naso   litura…
## # … with 559 more rows
```
…
**7. Make two new data frames, one which is restricted to carnivores and another that is restricted to herbivores.**  

```r
all_carn <- filter(homerange , trophic.guild == "carnivore")
all_carn
```

```
## # A tibble: 342 × 24
##    taxon   common.name   class   order  family genus species primarymethod N    
##    <fct>   <chr>         <chr>   <fct>  <chr>  <chr> <chr>   <chr>         <chr>
##  1 lake f… american eel  actino… angui… angui… angu… rostra… telemetry     16   
##  2 river … blacktail re… actino… cypri… catos… moxo… poecil… mark-recaptu… <NA> 
##  3 river … central ston… actino… cypri… cypri… camp… anomal… mark-recaptu… 20   
##  4 river … rosyside dace actino… cypri… cypri… clin… fundul… mark-recaptu… 26   
##  5 river … longnose dace actino… cypri… cypri… rhin… catara… mark-recaptu… 17   
##  6 river … muskellunge   actino… esoci… esoci… esox  masqui… telemetry     5    
##  7 marine… pollack       actino… gadif… gadid… poll… pollac… telemetry     2    
##  8 marine… saithe        actino… gadif… gadid… poll… virens  telemetry     2    
##  9 marine… giant treval… actino… perci… caran… cara… ignobi… telemetry     4    
## 10 lake f… rock bass     actino… perci… centr… ambl… rupest… mark-recaptu… 16   
## # … with 332 more rows, and 15 more variables: mean.mass.g <dbl>,
## #   log10.mass <dbl>, alternative.mass.reference <chr>, mean.hra.m2 <dbl>,
## #   log10.hra <dbl>, hra.reference <chr>, realm <chr>, thermoregulation <chr>,
## #   locomotion <chr>, trophic.guild <chr>, dimension <dbl>, preymass <dbl>,
## #   log10.preymass <dbl>, PPMR <dbl>, prey.size.reference <chr>
```

```r
all_herb <- filter(homerange, trophic.guild == "herbivore")
all_herb
```

```
## # A tibble: 227 × 24
##    taxon  common.name   class   order  family  genus species primarymethod N    
##    <fct>  <chr>         <chr>   <fct>  <chr>   <chr> <chr>   <chr>         <chr>
##  1 marin… lined surgeo… actino… perci… acanth… acan… lineat… direct obser… <NA> 
##  2 marin… orangespine … actino… perci… acanth… naso  litura… telemetry     8    
##  3 marin… bluespine un… actino… perci… acanth… naso  unicor… telemetry     7    
##  4 marin… redlip blenny actino… perci… blenni… ophi… atlant… direct obser… 20   
##  5 marin… bermuda chub  actino… perci… kyphos… kyph… sectat… telemetry     11   
##  6 marin… cherubfish    actino… perci… pomaca… cent… argi    direct obser… <NA> 
##  7 marin… damselfish    actino… perci… pomace… chro… chromis direct obser… <NA> 
##  8 marin… twinspot dam… actino… perci… pomace… chry… biocel… direct obser… 18   
##  9 marin… wards damsel  actino… perci… pomace… poma… wardi   direct obser… <NA> 
## 10 marin… australian g… actino… perci… pomace… steg… apical… direct obser… <NA> 
## # … with 217 more rows, and 15 more variables: mean.mass.g <dbl>,
## #   log10.mass <dbl>, alternative.mass.reference <chr>, mean.hra.m2 <dbl>,
## #   log10.hra <dbl>, hra.reference <chr>, realm <chr>, thermoregulation <chr>,
## #   locomotion <chr>, trophic.guild <chr>, dimension <dbl>, preymass <dbl>,
## #   log10.preymass <dbl>, PPMR <dbl>, prey.size.reference <chr>
```
…
```
## mean.hra.m2 
##    34137012
```

**9. Make a new dataframe `deer` that is limited to the mean mass, log10 mass, family, genus, and species of deer in the database. The family for deer is cervidae. Arrange the data in descending order by log10 mass. Which is the largest deer? What is its common name?**  

```r
deer <- select(homerange, mean.mass.g, log10.mass, family, genus, species)
deer
```

```
## # A tibble: 569 × 5
##    mean.mass.g log10.mass family       genus       species    
##          <dbl>      <dbl> <chr>        <chr>       <chr>      
##  1        887       2.95  anguillidae  anguilla    rostrata   
##  2        562       2.75  catostomidae moxostoma   poecilura  
##  3         34       1.53  cyprinidae   campostoma  anomalum   
##  4          4       0.602 cyprinidae   clinostomus funduloides
##  5          4       0.602 cyprinidae   rhinichthys cataractae 
##  6       3525       3.55  esocidae     esox        masquinongy
##  7        737.      2.87  gadidae      pollachius  pollachius 
##  8        449.      2.65  gadidae      pollachius  virens     
##  9        109.      2.04  acanthuridae acanthurus  lineatus   
## 10        772.      2.89  acanthuridae naso        lituratus  
## # … with 559 more rows
```
…
Moose 

**10. As measured by the data, which snake species has the smallest homerange? Show all of your work, please. Look this species up online and tell me about it!** **Snake is found in taxon column**    

```r
snakes <- filter(homerange, family == "colubridae" |  family == "elapidae" |  family == "viperidae" )
snakes
```

```
## # A tibble: 40 × 24
##    taxon  common.name   class  order  family genus species   primarymethod N    
##    <fct>  <chr>         <chr>  <fct>  <chr>  <chr> <chr>     <chr>         <chr>
##  1 snakes western worm… repti… squam… colub… carp… vermis    radiotag      1    
##  2 snakes eastern worm… repti… squam… colub… carp… viridis   radiotag      10   
##  3 snakes racer         repti… squam… colub… colu… constric… telemetry     15   
##  4 snakes yellow belli… repti… squam… colub… colu… constric… telemetry     12   
##  5 snakes ringneck sna… repti… squam… colub… diad… punctatus mark-recaptu… <NA> 
##  6 snakes eastern indi… repti… squam… colub… drym… couperi   telemetry     1    
##  7 snakes great plains… repti… squam… colub… elap… guttata … telemetry     12   
##  8 snakes western rats… repti… squam… colub… elap… obsoleta  telemetry     18   
##  9 snakes hognose snake repti… squam… colub… hete… platirhi… telemetry     8    
## 10 snakes European whi… repti… squam… colub… hier… viridifl… telemetry     32   
## # … with 30 more rows, and 15 more variables: mean.mass.g <dbl>,
## #   log10.mass <dbl>, alternative.mass.reference <chr>, mean.hra.m2 <dbl>,
## #   log10.hra <dbl>, hra.reference <chr>, realm <chr>, thermoregulation <chr>,
## #   locomotion <chr>, trophic.guild <chr>, dimension <dbl>, preymass <dbl>,
## #   log10.preymass <dbl>, PPMR <dbl>, prey.size.reference <chr>
```

```r
arrange(snakes, mean.hra.m2)
```

```
## # A tibble: 40 × 24
##    taxon  common.name   class  order  family  genus  species primarymethod N    
##    <fct>  <chr>         <chr>  <fct>  <chr>   <chr>  <chr>   <chr>         <chr>
##  1 snakes namaqua dwar… repti… squam… viperi… bitis  schnei… telemetry     11   
##  2 snakes eastern worm… repti… squam… colubr… carph… viridis radiotag      10   
##  3 snakes butlers gart… repti… squam… colubr… thamn… butleri mark-recaptu… 1    
##  4 snakes western worm… repti… squam… colubr… carph… vermis  radiotag      1    
##  5 snakes snubnosed vi… repti… squam… viperi… vipera latast… telemetry     7    
##  6 snakes chinese pit … repti… squam… viperi… gloyd… shedao… telemetry     16   
##  7 snakes ringneck sna… repti… squam… colubr… diado… puncta… mark-recaptu… <NA> 
##  8 snakes cottonmouth   repti… squam… viperi… agkis… pisciv… telemetry     15   
##  9 snakes redbacked ra… repti… squam… colubr… oocat… rufodo… telemetry     21   
## 10 snakes gopher snake  repti… squam… colubr… pituo… cateni… telemetry     4    
## # … with 30 more rows, and 15 more variables: mean.mass.g <dbl>,
## #   log10.mass <dbl>, alternative.mass.reference <chr>, mean.hra.m2 <dbl>,
## #   log10.hra <dbl>, hra.reference <chr>, realm <chr>, thermoregulation <chr>,
## #   locomotion <chr>, trophic.guild <chr>, dimension <dbl>, preymass <dbl>,
## #   log10.preymass <dbl>, PPMR <dbl>, prey.size.reference <chr>
```
…
